<?xml version="1.0" encoding="UTF-8" standalone="no"?>
<svg
   height="16"
   width="16"
   version="1.1"
   id="svg15"
   sodipodi:docname="traffic_signals_crossing.svg"
   xmlns:inkscape="http://www.inkscape.org/namespaces/inkscape"
   xmlns:sodipodi="http://sodipodi.sourceforge.net/DTD/sodipodi-0.dtd"
   xmlns="http://www.w3.org/2000/svg"
   xmlns:svg="http://www.w3.org/2000/svg">
  <defs
     id="defs15" />
  <sodipodi:namedview
     id="namedview15"
     pagecolor="#ffffff"
     bordercolor="#000000"
     borderopacity="0.25"
     inkscape:showpageshadow="2"
     inkscape:pageopacity="0.0"
     inkscape:pagecheckerboard="0"
     inkscape:deskcolor="#d1d1d1" />
  <path
     d="m 0,8.957117 h 16 v 7 H 0 Z"
     fill="#999999"
     id="path1" />
  <g
     fill="#ffffff"
     id="g11">
    <path
       d="m 5,8.957117 h 1.000089 v 0.99977 H 5 Z"
       id="path2" />
    <path
       d="m 10,8.957117 h 1 v 1 h -1 z"
       id="path3" />
    <path
       d="m 10,10.957117 h 1 v 2 h -1 z"
       id="path4" />
    <path
       d="m 10,13.957117 h 1 v 2 h -1 z"
       id="path5" />
    <path
       d="m 5,13.957117 h 1 v 2 H 5 Z"
       id="path6" />
    <path
       d="m 5,10.957117 h 1 v 2 H 5 Z"
       id="path7" />
    <path
       d="m 2,11.957117 h 2 v 1 H 2 Z"
       id="path8" />
    <path
       d="m 12,11.957117 h 2 v 1 h -2 z"
       id="path9" />
    <path
       d="m 0,11.957117 h 1 v 1 H 0 Z"
       id="path10" />
    <path
       d="m 15,11.957117 h 1 v 1 h -1 z"
       id="path11" />
  </g>
  <g
     transform="translate(0,-1036.3622)"
     id="g15">
    <rect
       height="16"
       ry="2"
       width="6"
       y="1036.3622"
       id="rect11"
       x="0" />
    <g
       stroke-width="0.2"
       id="g14">
      <path
         d="m 640,709.36218 c 0,1.10457 -0.89543,2 -2,2 -1.10457,0 -2,-0.89543 -2,-2 0,-1.10457 0.89543,-2 2,-2 1.10457,0 2,0.89543 2,2 z"
         fill="#f00"
         stroke="#b20505"
         transform="matrix(1.0952381,0,0,1.0952381,-695.7619,262.44169)"
         id="path12"
         style="fill:#363636;fill-opacity:1;stroke:#5c5c5c;stroke-opacity:1" />
      <path
         d="m 640,714.36218 c 0,1.10457 -0.89543,2 -2,2 -1.10457,0 -2,-0.89543 -2,-2 0,-1.10457 0.89543,-2 2,-2 1.10457,0 2,0.89543 2,2 z"
         fill="#ff0"
         stroke="#ffd600"
         stroke-linecap="square"
         transform="matrix(1.0952381,0,0,1.0952381,-695.7619,261.9655)"
         id="path13"
         style="fill:#b0b0b0;fill-opacity:1;stroke:#4f4f4f;stroke-opacity:1" />
      <path
         d="m 640,719.36218 c 0,1.10457 -0.89543,2 -2,2 -1.10457,0 -2,-0.89543 -2,-2 0,-1.10457 0.89543,-2 2,-2 1.10457,0 2,0.89543 2,2 z"
         fill="#0f0"
         stroke="#00b200"
         stroke-linecap="square"
         transform="matrix(1.0952381,0,0,1.0952381,-695.76189,261.48932)"
         id="path14"
         style="fill:#808080;fill-opacity:1;stroke:#595959;stroke-opacity:1" />
    </g>
  </g>
</svg>
