<?xml version="1.0" encoding="UTF-8" standalone="no"?>
<svg
   height="16"
   width="12"
   version="1.1"
   id="svg5"
   sodipodi:docname="traffic_signals_crossing_traffic_signals.svg"
   xmlns:inkscape="http://www.inkscape.org/namespaces/inkscape"
   xmlns:sodipodi="http://sodipodi.sourceforge.net/DTD/sodipodi-0.dtd"
   xmlns="http://www.w3.org/2000/svg"
   xmlns:svg="http://www.w3.org/2000/svg">
  <defs
     id="defs5" />
  <sodipodi:namedview
     id="namedview5"
     pagecolor="#ffffff"
     bordercolor="#000000"
     borderopacity="0.25"
     inkscape:showpageshadow="2"
     inkscape:pageopacity="0.0"
     inkscape:pagecheckerboard="0"
     inkscape:deskcolor="#d1d1d1" />
  <g
     transform="translate(0,-1036.3622)"
     id="g5">
    <rect
       height="16"
       ry="2"
       width="6"
       y="1036.3622"
       id="rect1"
       x="0" />
    <g
       stroke-width="0.2"
       id="g3">
      <path
         d="m 640,709.36218 c 0,1.10457 -0.89543,2 -2,2 -1.10457,0 -2,-0.89543 -2,-2 0,-1.10457 0.89543,-2 2,-2 1.10457,0 2,0.89543 2,2 z"
         fill="#f00"
         stroke="#b20505"
         transform="matrix(1.0952381,0,0,1.0952381,-695.7619,262.44169)"
         id="path1"
         style="fill:#363636;fill-opacity:1;stroke:#5c5c5c;stroke-opacity:1" />
      <path
         d="m 640,714.36218 c 0,1.10457 -0.89543,2 -2,2 -1.10457,0 -2,-0.89543 -2,-2 0,-1.10457 0.89543,-2 2,-2 1.10457,0 2,0.89543 2,2 z"
         fill="#ff0"
         stroke="#ffd600"
         stroke-linecap="square"
         transform="matrix(1.0952381,0,0,1.0952381,-695.7619,261.9655)"
         id="path2"
         style="fill:#b0b0b0;fill-opacity:1;stroke:#4f4f4f;stroke-opacity:1" />
      <path
         d="m 640,719.36218 c 0,1.10457 -0.89543,2 -2,2 -1.10457,0 -2,-0.89543 -2,-2 0,-1.10457 0.89543,-2 2,-2 1.10457,0 2,0.89543 2,2 z"
         fill="#0f0"
         stroke="#00b200"
         stroke-linecap="square"
         transform="matrix(1.0952381,0,0,1.0952381,-695.76189,261.48932)"
         id="path3"
         style="fill:#808080;fill-opacity:1;stroke:#595959;stroke-opacity:1" />
    </g>
    <rect
       height="11"
       ry="2"
       width="6"
       x="6"
       y="1041.3622"
       id="rect3" />
    <path
       d="m 640,709.36218 c 0,1.10457 -0.89543,2 -2,2 -1.10457,0 -2,-0.89543 -2,-2 0,-1.10457 0.89543,-2 2,-2 1.10457,0 2,0.89543 2,2 z"
       fill="#f00"
       stroke="#b20505"
       stroke-width="0.2"
       transform="matrix(1.0952381,0,0,1.0952381,-689.7619,267.44172)"
       id="path4"
       style="fill:#363636;fill-opacity:1;stroke:#5c5c5c;stroke-opacity:1" />
    <path
       d="m 640,719.36218 c 0,1.10457 -0.89543,2 -2,2 -1.10457,0 -2,-0.89543 -2,-2 0,-1.10457 0.89543,-2 2,-2 1.10457,0 2,0.89543 2,2 z"
       fill="#0f0"
       stroke="#00b200"
       stroke-linecap="square"
       stroke-width="0.2"
       transform="matrix(1.0952381,0,0,1.0952381,-689.76189,261.48935)"
       id="path5"
       style="fill:#808080;fill-opacity:1;stroke:#595959;stroke-opacity:1" />
  </g>
</svg>
